var ccode={
"type": "FeatureCollection",
"crs": { "type": "name", "properties": { "name": "urn:ogc:def:crs:OGC:1.3:CRS84" } },
                                                                                
"features": [
{ "type": "Feature", "properties": { "id": 3, "ccode": 3, "title": "空调","description": "1714 14th St NW, Washington DC"}, "geometry": { "type": "Point", "coordinates": [ 0.008887102234833, -0.002962491018873 ] } },
{ "type": "Feature", "properties": { "id": 2, "ccode": 2, "title": "电视" ,"description": "1714 14th St NW, Washington DC","marker-color": "#fc4353",
      "marker-size": "large", "marker-symbol": "harbor"}, "geometry": { "type": "Point", "coordinates": [ 0.005333139537627, -0.002962491018873 ] } },
{ "type": "Feature", "properties": { "id": 1, "ccode": 1, "title": "手机","description": "1714 14th St NW, Washington DC","marker-color": "#fc4353",
      "marker-size": "large", "marker-symbol": "harbor" }, "geometry": { "type": "Point", "coordinates": [ 0.005506120022889, -0.005148335327025 ] } }
]
}
