var hotarea={
"type": "FeatureCollection",
"crs": { "type": "name", "properties": { "name": "urn:ogc:def:crs:OGC:1.3:CRS84" } },
                                                                                
"features": [
{ "type": "Feature", "properties": { "id": 1, "name": "小围栏" }, "geometry": { "type": "Polygon", "coordinates": [ [ [ 0.005018629564423, -0.004582217377301 ], [ 0.005694826006812, -0.004440687889793 ], [ 0.006166590966618, -0.004881001850841 ], [ 0.006386747947861, -0.005808806267725 ], [ 0.006119414470637, -0.006312022222049 ], [ 0.005348865036287, -0.006453551709111 ], [ 0.004987178567102, -0.00602896324781 ], [ 0.004704119591219, -0.005116884329833 ], [ 0.005018629564423, -0.004582217377301 ] ] ] } },
{ "type": "Feature", "properties": { "id": 2, "name": "中围栏" }, "geometry": { "type": "Polygon", "coordinates": [ [ [ 0.004248080130073, -0.003025393013422 ], [ 0.005411767030928, -0.002160490588007 ], [ 0.006591179430443, -0.002805236032471 ], [ 0.006669806923744, -0.003481432473835 ], [ 0.005521845521549, -0.004409236892576 ], [ 0.004421060615335, -0.0037330404519 ], [ 0.004248080130073, -0.003025393013422 ] ] ] } },
{ "type": "Feature", "properties": { "id": 3, "name": "大围栏" }, "geometry": { "type": "Polygon", "coordinates": [ [ [ 0.008179454795124, -0.001861706113639 ], [ 0.009170161210717, -0.001673000129804 ], [ 0.009814906655785, -0.00197178460421 ], [ 0.01017659312497, -0.002553628054177 ], [ 0.009972161642387, -0.003701589454645 ], [ 0.010648358084776, -0.004362060396732 ], [ 0.010491103098174, -0.005431394301709 ], [ 0.009846357653106, -0.005635825783332 ], [ 0.008855651237513, -0.005525747293245 ], [ 0.008210905792444, -0.00527413931579 ], [ 0.007550434848716, -0.004786648859203 ], [ 0.007408905360774, -0.004409236892576 ], [ 0.007314552368813, -0.003072569509342 ], [ 0.007770591829959, -0.002097588593421 ], [ 0.008179454795124, -0.001861706113639 ] ] ] } }
]
}
